{
    "alpha": 1.1983235,
    "p": {
        "(0, 0, 1, 0, 0)": 1.0,
        "(0, 0, 1, 0, 1)": 0.613325,
        "(0, 0, 1, 1, 0)": 0.9968944,
        "(0, 0, 1, 1, 1)": 0.2467271,
        "(0, 1, 0, 0, 1)": 0.3817213,
        "(0, 1, 0, 1, 0)": 0.6633221,
        "(0, 1, 0, 1, 1)": 0.5124088,
        "(0, 1, 1, 0, 0)": 1.0,
        "(0, 1, 1, 0, 1)": 0.003756,
        "(0, 1, 1, 1, 0)": 0.2995956,
        "(0, 1, 1, 1, 1)": 0.9968944,
        "(1, 0, 0, 1, 0)": 0.3212406,
        "(1, 0, 0, 1, 1)": 0.8898206,
        "(1, 0, 1, 0, 0)": 1.0,
        "(1, 0, 1, 0, 1)": 0.2719206,
        "(1, 0, 1, 1, 0)": 0.9968944,
        "(1, 0, 1, 1, 1)": 0.1378346,
        "(1, 1, 0, 0, 1)": 0.3866379,
        "(1, 1, 0, 1, 0)": 0.0031056,
        "(1, 1, 0, 1, 1)": 0.5725546,
        "(1, 1, 1, 0, 0)": 1.0,
        "(1, 1, 1, 0, 1)": 0.8140378,
        "(1, 1, 1, 1, 0)": 0.2123193,
        "(1, 1, 1, 1, 1)": 0.0031056
    },
    "competitive_ratio": 15.986491548561702
}