{
    "alpha": 1.1507039,
    "p": {
        "(0, 0, 0, 0, 0, 1)": 0.2755178,
        "(0, 0, 0, 0, 1, 0)": 0.2048508,
        "(0, 0, 0, 0, 1, 1)": 0.6615193,
        "(0, 0, 0, 1, 0, 0)": 0.2649352,
        "(0, 0, 0, 1, 0, 1)": 1.0,
        "(0, 0, 0, 1, 1, 0)": 1.0,
        "(0, 0, 0, 1, 1, 1)": 0,
        "(0, 0, 1, 0, 0, 0)": 0.0378198,
        "(0, 0, 1, 0, 0, 1)": 0.5418845,
        "(0, 0, 1, 0, 1, 0)": 0,
        "(0, 0, 1, 0, 1, 1)": 0.6054698,
        "(0, 0, 1, 1, 0, 0)": 0.1946044,
        "(0, 0, 1, 1, 0, 1)": 0,
        "(0, 0, 1, 1, 1, 0)": 0.1131783,
        "(0, 0, 1, 1, 1, 1)": 1.0,
        "(0, 1, 0, 0, 0, 0)": 0.3847854,
        "(0, 1, 0, 0, 0, 1)": 1.0,
        "(0, 1, 0, 0, 1, 0)": 1.0,
        "(0, 1, 0, 0, 1, 1)": 0,
        "(0, 1, 0, 1, 0, 0)": 0.0070531,
        "(0, 1, 0, 1, 0, 1)": 0.0031056,
        "(0, 1, 0, 1, 1, 0)": 0.6283847,
        "(0, 1, 0, 1, 1, 1)": 1.0,
        "(0, 1, 1, 0, 0, 0)": 0.997664,
        "(0, 1, 1, 0, 0, 1)": 0.9968944,
        "(0, 1, 1, 0, 1, 0)": 0,
        "(0, 1, 1, 0, 1, 1)": 0.0016561,
        "(0, 1, 1, 1, 0, 0)": 0,
        "(0, 1, 1, 1, 0, 1)": 1.0,
        "(0, 1, 1, 1, 1, 0)": 0,
        "(0, 1, 1, 1, 1, 1)": 1.0,
        "(1, 0, 0, 0, 0, 0)": 1.0,
        "(1, 0, 0, 0, 0, 1)": 0.46068,
        "(1, 0, 0, 0, 1, 0)": 0.0009507,
        "(1, 0, 0, 0, 1, 1)": 0,
        "(1, 0, 0, 1, 0, 0)": 0.0031056,
        "(1, 0, 0, 1, 0, 1)": 0,
        "(1, 0, 0, 1, 1, 0)": 0,
        "(1, 0, 0, 1, 1, 1)": 0.0031056,
        "(1, 0, 1, 0, 0, 0)": 0.004789,
        "(1, 0, 1, 0, 0, 1)": 0.9968944,
        "(1, 0, 1, 0, 1, 0)": 0.0031056,
        "(1, 0, 1, 0, 1, 1)": 0,
        "(1, 0, 1, 1, 0, 0)": 0,
        "(1, 0, 1, 1, 0, 1)": 1.0,
        "(1, 0, 1, 1, 1, 0)": 0.9983439,
        "(1, 0, 1, 1, 1, 1)": 0,
        "(1, 1, 0, 0, 0, 0)": 0.5499063,
        "(1, 1, 0, 0, 0, 1)": 0.0647892,
        "(1, 1, 0, 0, 1, 0)": 0,
        "(1, 1, 0, 0, 1, 1)": 0.4969045,
        "(1, 1, 0, 1, 0, 0)": 0.0063088,
        "(1, 1, 0, 1, 0, 1)": 0.6656315,
        "(1, 1, 0, 1, 1, 0)": 0.1839948,
        "(1, 1, 0, 1, 1, 1)": 0.9983439,
        "(1, 1, 1, 0, 0, 0)": 0,
        "(1, 1, 1, 0, 0, 1)": 0.9968944,
        "(1, 1, 1, 0, 1, 0)": 0.0081306,
        "(1, 1, 1, 0, 1, 1)": 0.0031056,
        "(1, 1, 1, 1, 0, 0)": 0.0012531,
        "(1, 1, 1, 1, 0, 1)": 0,
        "(1, 1, 1, 1, 1, 0)": 1.0,
        "(1, 1, 1, 1, 1, 1)": 0
    },
    "competitive_ratio": 13.765219991282754
}