{
    "alpha": 1.213514,
    "p": {
        "(0, 1, 0, 1, 0, 1)": 0.4714117,
        "(0, 1, 0, 1, 1, 0)": 1.0,
        "(0, 1, 0, 1, 1, 1)": 0.4970021,
        "(0, 1, 1, 0, 1, 0)": 1.0,
        "(0, 1, 1, 0, 1, 1)": 0.9984916,
        "(0, 1, 1, 1, 0, 1)": 0.4185439,
        "(0, 1, 1, 1, 1, 0)": 1.0,
        "(0, 1, 1, 1, 1, 1)": 0.4905627,
        "(1, 0, 1, 0, 1, 0)": 1.0,
        "(1, 0, 1, 0, 1, 1)": 0.8269932,
        "(1, 0, 1, 1, 0, 1)": 0.0021498,
        "(1, 0, 1, 1, 1, 0)": 1.0,
        "(1, 0, 1, 1, 1, 1)": 0.7785116,
        "(1, 1, 0, 1, 0, 1)": 0.531965,
        "(1, 1, 0, 1, 1, 0)": 1.0,
        "(1, 1, 0, 1, 1, 1)": 0.3669535,
        "(1, 1, 1, 0, 1, 0)": 1.0,
        "(1, 1, 1, 0, 1, 1)": 0.9976007,
        "(1, 1, 1, 1, 0, 1)": 0.2871689,
        "(1, 1, 1, 1, 1, 0)": 1.0,
        "(1, 1, 1, 1, 1, 1)": 0.6221506
    },
    "competitive_ratio": 19.418535410570993
}