{
    "alpha": 1.2403843,
    "p": {
        "(0, 0, 0, 0, 0, 0)": 0.929943,
        "(0, 0, 0, 0, 0, 1)": 0.0597419,
        "(0, 0, 0, 0, 1, 0)": 0.0352946,
        "(0, 0, 0, 0, 1, 1)": 0.9313834,
        "(0, 0, 0, 1, 0, 0)": 0.584065,
        "(0, 0, 0, 1, 0, 1)": 1.0,
        "(0, 0, 0, 1, 1, 0)": 0.965347,
        "(0, 0, 0, 1, 1, 1)": 0.0323813,
        "(0, 0, 1, 0, 0, 0)": 1.0,
        "(0, 0, 1, 0, 0, 1)": 0.2894409,
        "(0, 0, 1, 0, 1, 0)": 1.0,
        "(0, 0, 1, 0, 1, 1)": 0.6463948,
        "(0, 0, 1, 1, 0, 0)": 0.9764217,
        "(0, 0, 1, 1, 0, 1)": 0.0478223,
        "(0, 0, 1, 1, 1, 0)": 0.5932726,
        "(0, 0, 1, 1, 1, 1)": 1.0,
        "(0, 1, 0, 0, 0, 0)": 0.960591,
        "(0, 1, 0, 0, 0, 1)": 0,
        "(0, 1, 0, 0, 1, 0)": 0.5382429,
        "(0, 1, 0, 0, 1, 1)": 1.0,
        "(0, 1, 0, 1, 0, 0)": 1.0,
        "(0, 1, 0, 1, 0, 1)": 0.4398366,
        "(0, 1, 0, 1, 1, 0)": 1.0,
        "(0, 1, 0, 1, 1, 1)": 0.5363417,
        "(0, 1, 1, 0, 0, 0)": 0.9666093,
        "(0, 1, 1, 0, 0, 1)": 0.031897,
        "(0, 1, 1, 0, 1, 0)": 0.510898,
        "(0, 1, 1, 0, 1, 1)": 0.994543,
        "(0, 1, 1, 1, 0, 0)": 1.0,
        "(0, 1, 1, 1, 0, 1)": 0.430404,
        "(0, 1, 1, 1, 1, 0)": 1.0,
        "(0, 1, 1, 1, 1, 1)": 0.5533591,
        "(1, 0, 0, 0, 0, 0)": 0.9099229,
        "(1, 0, 0, 0, 0, 1)": 0.058091,
        "(1, 0, 0, 0, 1, 0)": 0.1235221,
        "(1, 0, 0, 0, 1, 1)": 0.9258232,
        "(1, 0, 0, 1, 0, 0)": 0.9306462,
        "(1, 0, 0, 1, 0, 1)": 0.801806,
        "(1, 0, 0, 1, 1, 0)": 0.9656858,
        "(1, 0, 0, 1, 1, 1)": 0.0134402,
        "(1, 0, 1, 0, 0, 0)": 0.9563036,
        "(1, 0, 1, 0, 0, 1)": 0.1321928,
        "(1, 0, 1, 0, 1, 0)": 0.8593689,
        "(1, 0, 1, 0, 1, 1)": 0.8118728,
        "(1, 0, 1, 1, 0, 0)": 0.9638903,
        "(1, 0, 1, 1, 0, 1)": 0.0160459,
        "(1, 0, 1, 1, 1, 0)": 0.8226986,
        "(1, 0, 1, 1, 1, 1)": 0.8194227,
        "(1, 1, 0, 0, 0, 0)": 0.9440635,
        "(1, 1, 0, 0, 0, 1)": 0.0333212,
        "(1, 1, 0, 0, 1, 0)": 0.2936626,
        "(1, 1, 0, 0, 1, 1)": 0.9426346,
        "(1, 1, 0, 1, 0, 0)": 1.0,
        "(1, 1, 0, 1, 0, 1)": 0.6067679,
        "(1, 1, 0, 1, 1, 0)": 0.9930941,
        "(1, 1, 0, 1, 1, 1)": 0.3246385,
        "(1, 1, 1, 0, 0, 0)": 0.9618013,
        "(1, 1, 1, 0, 0, 1)": 0,
        "(1, 1, 1, 0, 1, 0)": 0.7017988,
        "(1, 1, 1, 0, 1, 1)": 0.9991535,
        "(1, 1, 1, 1, 0, 0)": 0.9927621,
        "(1, 1, 1, 1, 0, 1)": 0.2434738,
        "(1, 1, 1, 1, 1, 0)": 1.0,
        "(1, 1, 1, 1, 1, 1)": 0.6838449
    },
    "competitive_ratio": 20.657136597126666
}