{
    "alpha": 1.1880211,
    "p": {
        "(0, 0, 0, 1, 0, 0, 0)": 1.0,
        "(0, 0, 0, 1, 0, 0, 1)": 0.7899008,
        "(0, 0, 0, 1, 0, 1, 0)": 0.994975,
        "(0, 0, 0, 1, 0, 1, 1)": 0.2165093,
        "(0, 0, 0, 1, 1, 0, 0)": 1.0,
        "(0, 0, 0, 1, 1, 0, 1)": 0,
        "(0, 0, 0, 1, 1, 1, 0)": 0.0901069,
        "(0, 0, 0, 1, 1, 1, 1)": 1.0,
        "(0, 0, 1, 0, 0, 0, 1)": 0.3222668,
        "(0, 0, 1, 0, 0, 1, 0)": 0.9968944,
        "(0, 0, 1, 0, 0, 1, 1)": 0.3798094,
        "(0, 0, 1, 0, 1, 0, 0)": 1.0,
        "(0, 0, 1, 0, 1, 0, 1)": 0.1372555,
        "(0, 0, 1, 0, 1, 1, 0)": 0.2492029,
        "(0, 0, 1, 0, 1, 1, 1)": 0.9968944,
        "(0, 0, 1, 1, 0, 0, 0)": 1.0,
        "(0, 0, 1, 1, 0, 0, 1)": 0,
        "(0, 0, 1, 1, 0, 1, 0)": 0.0689895,
        "(0, 0, 1, 1, 0, 1, 1)": 1.0,
        "(0, 0, 1, 1, 1, 0, 0)": 0.336507,
        "(0, 0, 1, 1, 1, 0, 1)": 1.0,
        "(0, 0, 1, 1, 1, 1, 0)": 1.0,
        "(0, 0, 1, 1, 1, 1, 1)": 0,
        "(0, 1, 0, 0, 0, 1, 0)": 0.3248105,
        "(0, 1, 0, 0, 0, 1, 1)": 0.9186334,
        "(0, 1, 0, 0, 1, 0, 0)": 0.1404107,
        "(0, 1, 0, 0, 1, 0, 1)": 0.0031056,
        "(0, 1, 0, 0, 1, 1, 0)": 0.9096073,
        "(0, 1, 0, 0, 1, 1, 1)": 0.5991349,
        "(0, 1, 0, 1, 0, 0, 0)": 1.0,
        "(0, 1, 0, 1, 0, 0, 1)": 0.0031056,
        "(0, 1, 0, 1, 0, 1, 0)": 0,
        "(0, 1, 0, 1, 0, 1, 1)": 1.0,
        "(0, 1, 0, 1, 1, 0, 0)": 0.7711652,
        "(0, 1, 0, 1, 1, 0, 1)": 0.9968944,
        "(0, 1, 0, 1, 1, 1, 0)": 0.0031056,
        "(0, 1, 0, 1, 1, 1, 1)": 0,
        "(0, 1, 1, 0, 0, 0, 1)": 0.0031056,
        "(0, 1, 1, 0, 0, 1, 0)": 0.0030075,
        "(0, 1, 1, 0, 0, 1, 1)": 1.0,
        "(0, 1, 1, 0, 1, 0, 0)": 0.1725003,
        "(0, 1, 1, 0, 1, 0, 1)": 0.9968944,
        "(0, 1, 1, 0, 1, 1, 0)": 0.3882508,
        "(0, 1, 1, 0, 1, 1, 1)": 0.0031056,
        "(0, 1, 1, 1, 0, 0, 0)": 1.0,
        "(0, 1, 1, 1, 0, 0, 1)": 0.5595626,
        "(0, 1, 1, 1, 0, 1, 0)": 0.9968944,
        "(0, 1, 1, 1, 0, 1, 1)": 0,
        "(0, 1, 1, 1, 1, 0, 0)": 0.5703281,
        "(0, 1, 1, 1, 1, 0, 1)": 0,
        "(0, 1, 1, 1, 1, 1, 0)": 0,
        "(0, 1, 1, 1, 1, 1, 1)": 1.0,
        "(1, 0, 0, 0, 1, 0, 0)": 0.2851823,
        "(1, 0, 0, 0, 1, 0, 1)": 0.7265038,
        "(1, 0, 0, 0, 1, 1, 0)": 0.9968944,
        "(1, 0, 0, 0, 1, 1, 1)": 0.1466849,
        "(1, 0, 0, 1, 0, 0, 0)": 1.0,
        "(1, 0, 0, 1, 0, 0, 1)": 0.8428555,
        "(1, 0, 0, 1, 0, 1, 0)": 0.0031056,
        "(1, 0, 0, 1, 0, 1, 1)": 0.0031056,
        "(1, 0, 0, 1, 1, 0, 0)": 0.9968944,
        "(1, 0, 0, 1, 1, 0, 1)": 0.1655261,
        "(1, 0, 0, 1, 1, 1, 0)": 0.0481619,
        "(1, 0, 0, 1, 1, 1, 1)": 0.2582832,
        "(1, 0, 1, 0, 0, 0, 1)": 0.2956635,
        "(1, 0, 1, 0, 0, 1, 0)": 0,
        "(1, 0, 1, 0, 0, 1, 1)": 0.114528,
        "(1, 0, 1, 0, 1, 0, 0)": 0,
        "(1, 0, 1, 0, 1, 0, 1)": 0.0031056,
        "(1, 0, 1, 0, 1, 1, 0)": 0.0031056,
        "(1, 0, 1, 0, 1, 1, 1)": 0,
        "(1, 0, 1, 1, 0, 0, 0)": 1.0,
        "(1, 0, 1, 1, 0, 0, 1)": 0.2335065,
        "(1, 0, 1, 1, 0, 1, 0)": 0.0031056,
        "(1, 0, 1, 1, 0, 1, 1)": 0.0031056,
        "(1, 0, 1, 1, 1, 0, 0)": 0.0031056,
        "(1, 0, 1, 1, 1, 0, 1)": 0.9968944,
        "(1, 0, 1, 1, 1, 1, 0)": 0,
        "(1, 0, 1, 1, 1, 1, 1)": 0.0031056,
        "(1, 1, 0, 0, 0, 1, 0)": 0.2061006,
        "(1, 1, 0, 0, 0, 1, 1)": 1.0,
        "(1, 1, 0, 0, 1, 0, 0)": 0.2287908,
        "(1, 1, 0, 0, 1, 0, 1)": 0.2364353,
        "(1, 1, 0, 0, 1, 1, 0)": 0.9968041,
        "(1, 1, 0, 0, 1, 1, 1)": 0,
        "(1, 1, 0, 1, 0, 0, 0)": 1.0,
        "(1, 1, 0, 1, 0, 0, 1)": 0.9968944,
        "(1, 1, 0, 1, 0, 1, 0)": 0.9968944,
        "(1, 1, 0, 1, 0, 1, 1)": 0,
        "(1, 1, 0, 1, 1, 0, 0)": 0.9968944,
        "(1, 1, 0, 1, 1, 0, 1)": 0.0031056,
        "(1, 1, 0, 1, 1, 1, 0)": 0,
        "(1, 1, 0, 1, 1, 1, 1)": 0.9968944,
        "(1, 1, 1, 0, 0, 0, 1)": 0.2779788,
        "(1, 1, 1, 0, 0, 1, 0)": 0.3275294,
        "(1, 1, 1, 0, 0, 1, 1)": 0.4299595,
        "(1, 1, 1, 0, 1, 0, 0)": 0.1475757,
        "(1, 1, 1, 0, 1, 0, 1)": 0.0031056,
        "(1, 1, 1, 0, 1, 1, 0)": 0.0025311,
        "(1, 1, 1, 0, 1, 1, 1)": 0.9968944,
        "(1, 1, 1, 1, 0, 0, 0)": 1.0,
        "(1, 1, 1, 1, 0, 0, 1)": 0.0641662,
        "(1, 1, 1, 1, 0, 1, 0)": 0.0162612,
        "(1, 1, 1, 1, 0, 1, 1)": 0.9968944,
        "(1, 1, 1, 1, 1, 0, 0)": 0.1433946,
        "(1, 1, 1, 1, 1, 0, 1)": 0.994975,
        "(1, 1, 1, 1, 1, 1, 0)": 0.3707608,
        "(1, 1, 1, 1, 1, 1, 1)": 0
    },
    "competitive_ratio": 14.475310360957376
}